Clustering Giordani
…
## Calculating cluster 15

## Calculating cluster 16

## Calculating cluster 17

## Calculating cluster 18

## Calculating cluster 19

## Calculating cluster 20

giordani_seurat_markers %>% group_by(cluster) %>% top_n(n = 10, wt = avg_logFC)

## # A tibble: 210 x 7
## # Groups:   cluster [21]
##    p_val avg_logFC pct.1 pct.2 p_val_adj cluster gene   
##    <dbl>     <dbl> <dbl> <dbl>     <dbl> <fct>   <chr>  
##  1     0      2.58 0.97  0.211         0 0       Igkc   
##  2     0      2.42 0.999 0.226         0 0       Cd74   
##  3     0      2.09 0.995 0.291         0 0       H2-Ab1 
##  4     0      2.07 0.993 0.254         0 0       H2-Aa  
##  5     0      2.06 0.909 0.093         0 0       Cd79a  
##  6     0      2.02 0.986 0.188         0 0       H2-Eb1 
##  7     0      1.87 0.801 0.09          0 0       H2-DMb2
##  8     0      1.79 0.735 0.091         0 0       Cd79b  
##  9     0      1.67 0.861 0.205         0 0       Ighm   
## 10     0      1.64 0.655 0.098         0 0       Iglc2  
## # ... with 200 more rows
…
