Tabula muris seurat
…
## Calculating cluster 11

## Calculating cluster 12

## Calculating cluster 13

## Calculating cluster 14

## Calculating cluster 15

## Calculating cluster 16

sce.seurat.markers %>% group_by(cluster) %>% top_n(n = 10, wt = avg_logFC)

## # A tibble: 170 x 7
## # Groups:   cluster [17]
##        p_val avg_logFC pct.1 pct.2 p_val_adj cluster gene  
##        <dbl>     <dbl> <dbl> <dbl>     <dbl> <fct>   <chr> 
##  1 0.             2.82 0.93  0.162 0.        0       Smoc2 
##  2 0.             2.45 1     0.841 0.        0       Gsn   
##  3 0.             2.22 0.923 0.155 0.        0       Lum   
##  4 0.             1.98 0.984 0.329 0.        0       Col3a1
##  5 0.             1.95 0.79  0.127 0.        0       Ifi205
##  6 0.             1.92 0.848 0.166 0.        0       Myoc  
##  7 0.             1.79 0.833 0.158 0.        0       Ccl11 
##  8 1.49e-208      1.73 0.934 0.571 3.47e-204 0       Cxcl1 
##  9 4.30e-192      2.34 0.574 0.148 1.00e-187 0       Cxcl14
## 10 3.23e-124      1.84 0.508 0.164 7.53e-120 0       Ptx3  
## # ... with 160 more rows
…
