Integrate_ISC
…
## Calculating cluster 4

## Calculating cluster 5

## Calculating cluster 6

## Calculating cluster 7

## Calculating cluster 8

## Calculating cluster 9

isc.integrated.markers %>% group_by(cluster) %>% top_n(n = 10, wt = avg_logFC)

## # A tibble: 100 x 7
## # Groups:   cluster [10]
##       p_val avg_logFC pct.1 pct.2 p_val_adj cluster gene    
##       <dbl>     <dbl> <dbl> <dbl>     <dbl> <fct>   <chr>   
##  1 3.06e-91     1.16  0.955 0.778  6.12e-88 0       Hmox1   
##  2 1.36e-81     0.668 0.997 0.977  2.73e-78 0       Mt1     
##  3 2.67e-78     0.748 0.956 0.782  5.34e-75 0       Ifi205  
##  4 3.85e-71     0.655 0.973 0.815  7.70e-68 0       Ier5    
##  5 1.78e-56     0.634 0.902 0.716  3.56e-53 0       Gja1    
##  6 4.40e-48     0.557 0.971 0.88   8.81e-45 0       Cxcl1   
##  7 3.40e-44     0.615 0.88  0.712  6.81e-41 0       Fgl2    
##  8 2.66e-36     0.646 0.744 0.553  5.32e-33 0       Srxn1   
##  9 1.49e-23     0.626 0.668 0.488  2.98e-20 0       Thbs1   
## 10 1.71e-22     0.579 0.626 0.453  3.43e-19 0       Serpine1
## # ... with 90 more rows
…
